Hi Sir, 
                I have Completed the following task given below,
                        1. BD SUPPLIERS Dashboard is done in TMS SSO.
                        2. SORT ORDER WRT GATE NO in All Report is done in TMS SSO.
			3. Waste Chart is Changed from Count to Hrs in Dashboard is done in EKANBAN.
                        4. WASTE PROCESS FOR PUTAWAY MODULE is Partially is done in TMS FWH.