Hi Sir, 
                I have Completed the following task given below,
                        1. BD SUPPLIERS Dashboard 40% is done in TMS SSO.
                        2. GRN DASHBOARD => 1st Pass GRN color change (From black to yellow) is done in TMS FWH.
			3. MATERIAL FOLLOW UP=>	Pie chart - colors need to be the same as in the legends is done in TMS FWH.
                        4. TMS CWH Issue Rectified in Client System.