Hi Sir, 
                I have Completed the following task given below,
                        1. WASTE PROCESS FOR PUTAWAY MODULE is done in TMS FWH.
                        2. CHECK REF NO is done in TMS SSO.
			3. LOGIC NEED TO CHANGE FOR PARTS REQUESTED FOR MAT FOLLOW UP. (DON'T UPDATE IN PART MASTER) is Partially done in TMS FWH.
                        4. Testing