Hi Sir, 
                I have Completed the following task given below,
                        1. BD SUPPLIER YES/NO - DEFAULT - NO in Supplier Master is done in TMS SSO.
                        2. UPDATE BD SUPPLIER in Master Data Upload is done in TMS SSO.
			3. BD ISSUE MASTER Creation is done in TMS SSO.